{
  "data": [
    {
      "id": "3fa85f64-5717-4562-b3fc-2c963f66afa6",
      "pacienteId": "3fa85f64-5717-4562-b3fc-2c963f66afa6",
      "idempotencyKey": "exam-12345",
      "modalidade": "CR",
      "dataCriacao": "2023-01-01T00:00:00Z"
    }
  ],
  "total": 83,
  "page": 1,
  "pageSize": 10,
  "totalPages": 9
}